{
    "/js/custom.js": "/js/custom.js?id=667b3dc948a56b674952",
    "/js/login.js": "/js/login.js?id=ad0da29e811d0b035c43",
    "/css/style.css": "/css/style.css?id=bc5b097b05b5a25f6538",
    "/css/login.css": "/css/login.css?id=449f190625b3c23cf853",
    "/css/custom.css": "/css/custom.css?id=a27ef7df423238498376"
}
